{
    "results": [
        {
            "popularity": "1447.764",
            "vote_count": 18,
            "video": false,
            "poster_path": "/m9cn5mhW519QKr1YGpGxNWi98VJ.jpg",
            "id": 635302,
            "adult": false,
            "backdrop_path": "/xoqr4dMbRJnzuhsWDF3XNHQwJ9x.jpg",
            "original_language": "ja",
            "original_title": "劇場版「鬼滅の刃」無限列車編",
            "genre_ids": [
                28,
                12,
                16,
                18,
                14,
                36
            ],
            "title": "劇場版「鬼滅の刃」無限列車編",
            "vote_average": 7.5,
            "overview": "",
            "release_date": "2020-10-16"
        }
    ],
    "page": 1,
    "total_results": 397,
    "dates": {
        "maximum": "2020-11-19",
        "minimum": "2020-10-27"
    },
    "total_pages": 20
}
