{
    "page": 1,
    "total_results": 10000,
    "total_pages": 500,
    "results": [
        {
            "popularity": 2716.426,
            "vote_count": 21,
            "video": false,
            "poster_path": "/ugZW8ocsrfgI95pnQ7wrmKDxIe.jpg",
            "id": 724989,
            "adult": false,
            "backdrop_path": "/86L8wqGMDbwURPni2t7FQ0nDjsH.jpg",
            "original_language": "en",
            "original_title": "Hard Kill",
            "genre_ids": [
                28,
                53
            ],
            "title": "Hard Kill",
            "vote_average": 4,
            "overview": "The work of billionaire tech CEO Donovan Chalmers is so valuable that he hires mercenaries to protect it, and a terrorist group kidnaps his daughter just to get it.",
            "release_date": "2020-10-23"
        },
        {
            "popularity": 1436.903,
            "vote_count": 14,
            "video": false,
            "poster_path": "/h8Rb9gBr48ODIwYUttZNYeMWeUU.jpg",
            "id": 635302,
            "adult": false,
            "backdrop_path": "/xoqr4dMbRJnzuhsWDF3XNHQwJ9x.jpg",
            "original_language": "ja",
            "original_title": "劇場版「鬼滅の刃」無限列車編",
            "genre_ids": [
                28,
                12,
                16,
                18,
                14,
                36
            ],
            "title": "Demon Slayer: Kimetsu no Yaiba - The Movie: Mugen Train",
            "vote_average": 8,
            "overview": "Tanjirō Kamado, joined with Inosuke Hashibira, a boy raised by boars who wears a boar's head, and Zenitsu Agatsuma, a scared boy who reveals his true power when he sleeps, boards the Infinity Train on a new mission with the Fire Hashira, Kyōjurō Rengoku, to defeat a demon who has been tormenting the people and killing the demon slayers who oppose it!",
            "release_date": "2020-10-16"
        },
        {
            "popularity": 1234.5,
            "vote_count": 122,
            "video": false,
            "poster_path": "/elZ6JCzSEvFOq4gNjNeZsnRFsvj.jpg",
            "id": 741067,
            "adult": false,
            "backdrop_path": "/aO5ILS7qnqtFIprbJ40zla0jhpu.jpg",
            "original_language": "en",
            "original_title": "Welcome to Sudden Death",
            "genre_ids": [
                28,
                12,
                18,
                53
            ],
            "title": "Welcome to Sudden Death",
            "vote_average": 6.4,
            "overview": "Jesse Freeman is a former special forces officer and explosives expert now working a regular job as a security guard in a state-of-the-art basketball arena. Trouble erupts when a tech-savvy cadre of terrorists kidnap the team's owner and Jesse's daughter during opening night. Facing a ticking clock and impossible odds, it's up to Jesse to not only save them but also a full house of fans in this highly charged action thriller.",
            "release_date": "2020-09-29"
        },
        {
            "popularity": 949.681,
            "vote_count": 168,
            "video": false,
            "poster_path": "/r4Lm1XKP0VsTgHX4LG4syAwYA2I.jpg",
            "id": 590223,
            "adult": false,
            "backdrop_path": "/lA5fOBqTOQBQ1s9lEYYPmNXoYLi.jpg",
            "original_language": "en",
            "original_title": "Love and Monsters",
            "genre_ids": [
                28,
                12,
                35,
                878
            ],
            "title": "Love and Monsters",
            "vote_average": 7.6,
            "overview": "Seven years after the Monsterpocalypse, Joel Dawson, along with the rest of humanity, has been living underground ever since giant creatures took control of the land. After reconnecting over radio with his high school girlfriend Aimee, who is now 80 miles away at a coastal colony, Joel begins to fall for her again. As Joel realizes that there’s nothing left for him underground, he decides against all logic to venture out to Aimee, despite all the dangerous monsters that stand in his way.",
            "release_date": "2020-10-16"
        },
        {
            "popularity": 821.904,
            "vote_count": 2634,
            "video": false,
            "poster_path": "/aKx1ARwG55zZ0GpRvU2WrGrCG9o.jpg",
            "id": 337401,
            "adult": false,
            "backdrop_path": "/zzWGRw277MNoCs3zhyG3YmYQsXv.jpg",
            "original_language": "en",
            "original_title": "Mulan",
            "genre_ids": [
                28,
                12,
                18,
                14
            ],
            "title": "Mulan",
            "vote_average": 7.3,
            "overview": "When the Emperor of China issues a decree that one man per family must serve in the Imperial Chinese Army to defend the country from Huns, Hua Mulan, the eldest daughter of an honored warrior, steps in to take the place of her ailing father. She is spirited, determined and quick on her feet. Disguised as a man by the name of Hua Jun, she is tested every step of the way and must harness her innermost strength and embrace her true potential.",
            "release_date": "2020-09-04"
        },
        {
            "popularity": 758.939,
            "vote_count": 534,
            "video": false,
            "poster_path": "/qzA87Wf4jo1h8JMk9GilyIYvwsA.jpg",
            "id": 539885,
            "adult": false,
            "backdrop_path": "/54yOImQgj8i85u9hxxnaIQBRUuo.jpg",
            "original_language": "en",
            "original_title": "Ava",
            "genre_ids": [
                28,
                80,
                18,
                53
            ],
            "title": "Ava",
            "vote_average": 5.8,
            "overview": "A black ops assassin is forced to fight for her own survival after a job goes dangerously wrong.",
            "release_date": "2020-07-02"
        },
        {
            "popularity": 724.097,
            "vote_count": 321,
            "video": false,
            "poster_path": "/uOw5JD8IlD546feZ6oxbIjvN66P.jpg",
            "id": 718444,
            "adult": false,
            "backdrop_path": "/x4UkhIQuHIJyeeOTdcbZ3t3gBSa.jpg",
            "original_language": "en",
            "original_title": "Rogue",
            "genre_ids": [
                28,
                12,
                18,
                53
            ],
            "title": "Rogue",
            "vote_average": 5.9,
            "overview": "Battle-hardened O’Hara leads a lively mercenary team of soldiers on a daring mission: rescue hostages from their captors in remote Africa. But as the mission goes awry and the team is stranded, O’Hara’s squad must face a bloody, brutal encounter with a gang of rebels.",
            "release_date": "2020-08-20"
        },
        {
            "popularity": 712.319,
            "vote_count": 152,
            "video": false,
            "poster_path": "/6CoRTJTmijhBLJTUNoVSUNxZMEI.jpg",
            "id": 694919,
            "adult": false,
            "backdrop_path": "/pq0JSpwyT2URytdFG0euztQPAyR.jpg",
            "original_language": "en",
            "original_title": "Money Plane",
            "genre_ids": [
                28
            ],
            "title": "Money Plane",
            "vote_average": 5.9,
            "overview": "A professional thief with $40 million in debt and his family's life on the line must commit one final heist - rob a futuristic airborne casino filled with the world's most dangerous criminals.",
            "release_date": "2020-09-29"
        },
        {
            "popularity": 669.805,
            "vote_count": 663,
            "video": false,
            "poster_path": "/sy6DvAu72kjoseZEjocnm2ZZ09i.jpg",
            "id": 581392,
            "adult": false,
            "backdrop_path": "/2nFzxaAK7JIsk6l7qZ8rFBsa3yW.jpg",
            "original_language": "ko",
            "original_title": "반도",
            "genre_ids": [
                28,
                27,
                53
            ],
            "title": "Peninsula",
            "vote_average": 7,
            "overview": "A soldier and his team battle hordes of post-apocalyptic zombies in the wastelands of the Korean Peninsula.",
            "release_date": "2020-07-15"
        },
        {
            "popularity": 633.454,
            "vote_count": 10,
            "video": false,
            "poster_path": "/z0r3YjyJSLqf6Hz0rbBAnEhNXQ7.jpg",
            "id": 697064,
            "adult": false,
            "backdrop_path": "/7WKIOXJa2JjHygE8Yta3uaCv6GC.jpg",
            "original_language": "en",
            "original_title": "Beckman",
            "genre_ids": [
                28
            ],
            "title": "Beckman",
            "vote_average": 3.8,
            "overview": "A contract killer, becomes the reverend of a LA church, until a cult leader and his minions kidnap his daughter. Blinded by vengeance, he cuts a bloody path across the city. The only thing that can stop him is his newfound faith.",
            "release_date": "2020-09-10"
        },
        {
            "popularity": 551.532,
            "vote_count": 897,
            "video": false,
            "poster_path": "/tI8ocADh22GtQFV28vGHaBZVb0U.jpg",
            "id": 475430,
            "adult": false,
            "backdrop_path": "/o0F8xAt8YuEm5mEZviX5pEFC12y.jpg",
            "original_language": "en",
            "original_title": "Artemis Fowl",
            "genre_ids": [
                28,
                12,
                14,
                878,
                10751
            ],
            "title": "Artemis Fowl",
            "vote_average": 5.8,
            "overview": "Artemis Fowl is a 12-year-old genius and descendant of a long line of criminal masterminds. He soon finds himself in an epic battle against a race of powerful underground fairies who may be behind his father's disappearance.",
            "release_date": "2020-06-12"
        },
        {
            "popularity": 541.464,
            "vote_count": 143,
            "video": false,
            "poster_path": "/9Rj8l6gElLpRL7Kj17iZhrT5Zuw.jpg",
            "id": 734309,
            "adult": false,
            "backdrop_path": "/7fvdg211A2L0mHddvzyArRuRalp.jpg",
            "original_language": "en",
            "original_title": "Santana",
            "genre_ids": [
                28,
                18,
                53
            ],
            "title": "Santana",
            "vote_average": 5.5,
            "overview": "Two brothers — one a narcotics agent and the other a general — finally discover the identity of the drug lord who murdered their parents decades ago. They may kill each other before capturing the bad guys.",
            "release_date": "2020-08-28"
        },
        {
            "popularity": 523.187,
            "vote_count": 114,
            "video": false,
            "poster_path": "/i4kPwXPlM1iy8Jf3S1uuLuwqQAV.jpg",
            "id": 721452,
            "adult": false,
            "backdrop_path": "/riDrpqQtZpXGeiJdlmfcwwPH7nN.jpg",
            "original_language": "en",
            "original_title": "One Night in Bangkok",
            "genre_ids": [
                28,
                53
            ],
            "title": "One Night in Bangkok",
            "vote_average": 7.2,
            "overview": "A hit man named Kai flies into Bangkok, gets a gun, and orders a cab. He offers a professional female driver big money to be his all-night driver. But when she realizes Kai is committing brutal murders at each stop, it's too late to walk away. Meanwhile, an offbeat police detective races to decode the string of slayings before more blood is spilled.",
            "release_date": "2020-08-25"
        },
        {
            "popularity": 457.153,
            "vote_count": 1479,
            "video": false,
            "poster_path": "/TnOeov4w0sTtV2gqICqIxVi74V.jpg",
            "id": 605116,
            "adult": false,
            "backdrop_path": "/qVygtf2vU15L2yKS4Ke44U4oMdD.jpg",
            "original_language": "en",
            "original_title": "Project Power",
            "genre_ids": [
                28,
                80,
                878
            ],
            "title": "Project Power",
            "vote_average": 6.6,
            "overview": "An ex-soldier, a teen and a cop collide in New Orleans as they hunt for the source behind a dangerous new pill that grants users temporary superpowers.",
            "release_date": "2020-08-14"
        },
        {
            "popularity": 425.498,
            "vote_count": 1268,
            "video": false,
            "poster_path": "/MM1r8HQUn6VG0Njr8S6cmXHyvJ.jpg",
            "id": 11679,
            "adult": false,
            "backdrop_path": "/tQIYqsulr3GwgsFbQ3jKKW8SX4V.jpg",
            "original_language": "en",
            "original_title": "xXx: State of the Union",
            "genre_ids": [
                28,
                12,
                80,
                18,
                9648,
                53
            ],
            "title": "xXx: State of the Union",
            "vote_average": 4.9,
            "overview": "Darius Stone's criminal record and extreme sports obsession make him the perfect candidate to be the newest XXX agent. He must save the U.S. government from a deadly conspiracy led by five-star general and Secretary of Defense George Deckert.",
            "release_date": "2005-04-27"
        },
        {
            "popularity": 406.608,
            "vote_count": 74,
            "video": false,
            "poster_path": "/w6e0XZreiyW4mGlLRHEG8ipff7b.jpg",
            "id": 722603,
            "adult": false,
            "backdrop_path": "/m7QpUAeI2xTCJyAVl9J9z5dBTSb.jpg",
            "original_language": "en",
            "original_title": "Battlefield 2025",
            "genre_ids": [
                28,
                27,
                878
            ],
            "title": "Battlefield 2025",
            "vote_average": 5.8,
            "overview": "Weekend campers, an escaped convict, young lovers and a police officer experience a night of terror when a hostile visitor from another world descends on a small Arizona town.",
            "release_date": "2020-07-07"
        },
        {
            "popularity": 404.685,
            "vote_count": 181,
            "video": false,
            "poster_path": "/xOmGTJtBgRVSAF4S5dZEUqHqyy5.jpg",
            "id": 621870,
            "adult": false,
            "backdrop_path": "/oSSEcPDfwgZSv2i01Oqxdb9t8fI.jpg",
            "original_language": "en",
            "original_title": "Secret Society of Second Born Royals",
            "genre_ids": [
                28,
                12,
                35,
                14
            ],
            "title": "Secret Society of Second Born Royals",
            "vote_average": 7,
            "overview": "Sam is a teenage royal rebel, second in line to the throne of the kingdom of Illyria. Just as her disinterest in the royal way of life is at an all-time high, she discovers she has super-human abilities and is invited to join a secret society of similar extraordinary second-born royals charged with keeping the world safe.",
            "release_date": "2020-09-25"
        },
        {
            "popularity": 396.236,
            "vote_count": 140,
            "video": false,
            "poster_path": "/dnN1ncxEOO1TY0gYL2FWxJqlhlL.jpg",
            "id": 603119,
            "adult": false,
            "backdrop_path": "/aRyTzHXl9A0vHsd3zd8w2IJxezn.jpg",
            "original_language": "en",
            "original_title": "The Silencing",
            "genre_ids": [
                28,
                80,
                53
            ],
            "title": "The Silencing",
            "vote_average": 6.6,
            "overview": "A reformed hunter becomes involved in a deadly game of cat and mouse when he and the local sheriff set out to track a vicious killer who may have kidnapped his daughter years ago.",
            "release_date": "2020-07-18"
        },
        {
            "popularity": 395.659,
            "vote_count": 448,
            "video": false,
            "poster_path": "/zGVbrulkupqpbwgiNedkJPyQum4.jpg",
            "id": 592350,
            "adult": false,
            "backdrop_path": "/9guoVF7zayiiUq5ulKQpt375VIy.jpg",
            "original_language": "ja",
            "original_title": "僕のヒーローアカデミア THE MOVIE ヒーローズ：ライジング",
            "genre_ids": [
                28,
                16
            ],
            "title": "My Hero Academia: Heroes Rising",
            "vote_average": 8.6,
            "overview": "Class 1-A visits Nabu Island where they finally get to do some real hero work. The place is so peaceful that it's more like a vacation … until they're attacked by a villain with an unfathomable Quirk! His power is eerily familiar, and it looks like Shigaraki had a hand in the plan. But with All Might retired and citizens' lives on the line, there's no time for questions. Deku and his friends are the next generation of heroes, and they're the island's only hope.",
            "release_date": "2019-12-20"
        },
        {
            "popularity": 394.126,
            "vote_count": 128,
            "video": false,
            "poster_path": "/n6hptKS7Y0ZjkYwbqKOK3jz9XAC.jpg",
            "id": 594328,
            "adult": false,
            "backdrop_path": "/lkeBhXGJFRlhI7cBWn8LQQAdZqK.jpg",
            "original_language": "en",
            "original_title": "Phineas and Ferb The Movie: Candace Against the Universe",
            "genre_ids": [
                28,
                12,
                16,
                35,
                10402,
                878,
                10751,
                10770
            ],
            "title": "Phineas and Ferb The Movie: Candace Against the Universe",
            "vote_average": 7.2,
            "overview": "Phineas and Ferb travel across the galaxy to rescue their older sister Candace, who has been abducted by aliens and taken to a utopia in a far-off planet, free of her pesky little brothers.",
            "release_date": "2020-08-28"
        }
    ]
}
